src/ram_log.log
# vsim -vopt work.top -voptargs="+acc=npr" -assertdebug -l ram_log.log -coverage -c -do "coverage save -onexit -assert -directive -cvg -codeAll ram_1.ucdb; run -all; exit" 
# Start time: 15:29:13 on Jul 06,2026
# ** Note: (vsim-3813) Design is being optimized due to module recompilation...
# //  Questa Sim
# //  Version 10.6c linux Jul 25 2017
# //
# //  Copyright 1991-2017 Mentor Graphics Corporation
# //  All Rights Reserved.
# //
# //  QuestaSim and its associated documentation contain trade
# //  secrets and commercial or financial information that are the property of
# //  Mentor Graphics Corporation and are privileged, confidential,
# //  and exempt from disclosure under the Freedom of Information Act,
# //  5 U.S.C. Section 552. Furthermore, this information
# //  is prohibited from disclosure under the Trade Secrets Act,
# //  18 U.S.C. Section 1905.
# //
# Loading sv_std.std
# Loading work.ram_if(fast)
# Loading work.ram_package(fast)
# Loading work.top(fast)
# Loading work.ram_if(fast)
# Loading work.RAM(fast)
# coverage save -onexit -assert -directive -cvg -codeAll ram_1.ucdb
#  run -all
# 
# [REGRESSION] Launching Test Sequence 0...
# [GENERATOR][0] Randomized  DATA_IN = fa | ADDR = 9 | WRITE_ENB = 0 | READ_ENB = 1
# [GENERATOR][0] Randomized  DATA_IN = cd | ADDR = 10 | WRITE_ENB = 1 | READ_ENB = 0
# [GENERATOR][0] Randomized  DATA_IN = af | ADDR = 1c | WRITE_ENB = 1 | READ_ENB = 0
# [GENERATOR][0] Randomized  DATA_IN = f1 | ADDR = 2 | WRITE_ENB = 0 | READ_ENB = 1
# [GENERATOR][0] Randomized  DATA_IN = 19 | ADDR = 10 | WRITE_ENB = 1 | READ_ENB = 0
# [GENERATOR][0] Randomized  DATA_IN = 41 | ADDR = 1a | WRITE_ENB = 1 | READ_ENB = 0
# [GENERATOR][0] Randomized  DATA_IN = 3b | ADDR = b | WRITE_ENB = 1 | READ_ENB = 0
# [GENERATOR][0] Randomized  DATA_IN = 38 | ADDR = d | WRITE_ENB = 1 | READ_ENB = 0
# [GENERATOR][0] Randomized  DATA_IN = fb | ADDR = 1c | WRITE_ENB = 1 | READ_ENB = 0
# [GENERATOR][0] Randomized  DATA_IN = 44 | ADDR = 12 | WRITE_ENB = 0 | READ_ENB = 1
# [GENERATOR][0] Randomized  DATA_IN = 3a | ADDR = 3 | WRITE_ENB = 1 | READ_ENB = 0
# [GENERATOR][0] Randomized  DATA_IN = 35 | ADDR = 6 | WRITE_ENB = 1 | READ_ENB = 0
# [GENERATOR][0] Randomized  DATA_IN = 11 | ADDR = 15 | WRITE_ENB = 0 | READ_ENB = 1
# [GENERATOR][0] Randomized  DATA_IN = e7 | ADDR = 3 | WRITE_ENB = 1 | READ_ENB = 0
# [GENERATOR][0] Randomized  DATA_IN = 81 | ADDR = 5 | WRITE_ENB = 1 | READ_ENB = 0
# [GENERATOR][0] Randomized  DATA_IN = f2 | ADDR = 15 | WRITE_ENB = 1 | READ_ENB = 0
# [GENERATOR][0] Randomized  DATA_IN = bb | ADDR = 2 | WRITE_ENB = 0 | READ_ENB = 1
# [GENERATOR][0] Randomized  DATA_IN = d8 | ADDR = f | WRITE_ENB = 0 | READ_ENB = 1
# [GENERATOR][0] Randomized  DATA_IN = 33 | ADDR = 10 | WRITE_ENB = 0 | READ_ENB = 1
# [GENERATOR][0] Randomized  DATA_IN = 7 | ADDR = d | WRITE_ENB = 0 | READ_ENB = 1
# [GENERATOR][0] Randomized  DATA_IN = 9e | ADDR = 0 | WRITE_ENB = 0 | READ_ENB = 1
# [GENERATOR][0] Randomized  DATA_IN = f1 | ADDR = 1a | WRITE_ENB = 1 | READ_ENB = 0
# [GENERATOR][0] Randomized  DATA_IN = dc | ADDR = 5 | WRITE_ENB = 1 | READ_ENB = 0
# [GENERATOR][0] Randomized  DATA_IN = 34 | ADDR = a | WRITE_ENB = 0 | READ_ENB = 1
# [GENERATOR][0] Randomized  DATA_IN = fa | ADDR = 1e | WRITE_ENB = 0 | READ_ENB = 1
# [GENERATOR][0] Randomized  DATA_IN = 26 | ADDR = 2 | WRITE_ENB = 0 | READ_ENB = 1
# [GENERATOR][0] Randomized  DATA_IN = 1a | ADDR = f | WRITE_ENB = 1 | READ_ENB = 0
# [GENERATOR][0] Randomized  DATA_IN = 92 | ADDR = 7 | WRITE_ENB = 1 | READ_ENB = 0
# [GENERATOR][0] Randomized  DATA_IN = 7e | ADDR = 9 | WRITE_ENB = 1 | READ_ENB = 0
# [GENERATOR][0] Randomized  DATA_IN = 6c | ADDR = 7 | WRITE_ENB = 0 | READ_ENB = 1
# [GENERATOR][0] Randomized  DATA_IN = 44 | ADDR = 1f | WRITE_ENB = 1 | READ_ENB = 0
# [GENERATOR][0] Randomized  DATA_IN = 2f | ADDR = 4 | WRITE_ENB = 0 | READ_ENB = 1
# [GENERATOR][0] Randomized  DATA_IN = f7 | ADDR = 2 | WRITE_ENB = 1 | READ_ENB = 0
# [GENERATOR][0] Randomized  DATA_IN = 73 | ADDR = f | WRITE_ENB = 0 | READ_ENB = 1
# [GENERATOR][0] Randomized  DATA_IN = 2f | ADDR = 18 | WRITE_ENB = 0 | READ_ENB = 1
# [GENERATOR][0] Randomized  DATA_IN = 44 | ADDR = 18 | WRITE_ENB = 0 | READ_ENB = 1
# [GENERATOR][0] Randomized  DATA_IN = 76 | ADDR = e | WRITE_ENB = 1 | READ_ENB = 0
# [GENERATOR][0] Randomized  DATA_IN = 8 | ADDR = 13 | WRITE_ENB = 0 | READ_ENB = 1
# [GENERATOR][0] Randomized  DATA_IN = 77 | ADDR = 1f | WRITE_ENB = 1 | READ_ENB = 0
# [GENERATOR][0] Randomized  DATA_IN = b0 | ADDR = 8 | WRITE_ENB = 0 | READ_ENB = 1
# [GENERATOR][0] Randomized  DATA_IN = 37 | ADDR = 11 | WRITE_ENB = 0 | READ_ENB = 1
# [GENERATOR][0] Randomized  DATA_IN = 3e | ADDR = 0 | WRITE_ENB = 0 | READ_ENB = 1
# [GENERATOR][0] Randomized  DATA_IN = 72 | ADDR = e | WRITE_ENB = 0 | READ_ENB = 1
# [GENERATOR][0] Randomized  DATA_IN = dd | ADDR = 8 | WRITE_ENB = 1 | READ_ENB = 0
# [GENERATOR][0] Randomized  DATA_IN = 0 | ADDR = 16 | WRITE_ENB = 0 | READ_ENB = 1
# [GENERATOR][0] Randomized  DATA_IN = 5a | ADDR = 3 | WRITE_ENB = 1 | READ_ENB = 0
# [GENERATOR][0] Randomized  DATA_IN = 96 | ADDR = 1 | WRITE_ENB = 1 | READ_ENB = 0
# [GENERATOR][0] Randomized  DATA_IN = 83 | ADDR = 10 | WRITE_ENB = 0 | READ_ENB = 1
# [GENERATOR][0] Randomized  DATA_IN = df | ADDR = 15 | WRITE_ENB = 0 | READ_ENB = 1
# [GENERATOR][0] Randomized  DATA_IN = 39 | ADDR = 1d | WRITE_ENB = 0 | READ_ENB = 1
# [GENERATOR][0] Randomized  DATA_IN = b4 | ADDR = 13 | WRITE_ENB = 0 | READ_ENB = 1
# [GENERATOR][0] Randomized  DATA_IN = 16 | ADDR = 1b | WRITE_ENB = 1 | READ_ENB = 0
# [GENERATOR][0] Randomized  DATA_IN = be | ADDR = e | WRITE_ENB = 0 | READ_ENB = 1
# [GENERATOR][0] Randomized  DATA_IN = de | ADDR = 1b | WRITE_ENB = 0 | READ_ENB = 1
# [GENERATOR][0] Randomized  DATA_IN = 8c | ADDR = b | WRITE_ENB = 0 | READ_ENB = 1
# [GENERATOR][0] Randomized  DATA_IN = b6 | ADDR = 7 | WRITE_ENB = 0 | READ_ENB = 1
# [GENERATOR][0] Randomized  DATA_IN = 3b | ADDR = 6 | WRITE_ENB = 0 | READ_ENB = 1
# [GENERATOR][0] Randomized  DATA_IN = c7 | ADDR = 7 | WRITE_ENB = 1 | READ_ENB = 0
# [GENERATOR][0] Randomized  DATA_IN = 9 | ADDR = 19 | WRITE_ENB = 1 | READ_ENB = 0
# [GENERATOR][0] Randomized  DATA_IN = 72 | ADDR = 8 | WRITE_ENB = 0 | READ_ENB = 1
# [GENERATOR][0] Randomized  DATA_IN = 4a | ADDR = 7 | WRITE_ENB = 0 | READ_ENB = 1
# [GENERATOR][0] Randomized  DATA_IN = e9 | ADDR = b | WRITE_ENB = 1 | READ_ENB = 0
# [GENERATOR][0] Randomized  DATA_IN = 45 | ADDR = 1c | WRITE_ENB = 0 | READ_ENB = 1
# [GENERATOR][0] Randomized  DATA_IN = 11 | ADDR = 17 | WRITE_ENB = 1 | READ_ENB = 0
# [DRIVER] [900] to INTERFACE DATA_IN = fa | ADDR = 9 | WRITE_ENB = 0 | READ_ENB = 1
# I/P Functional Coverage = 65.000000%
# [REF] [900] Reference model DATA_OUT = xx
# [SCOREBOARD] [900] REF DATA_OUT = xx | ADDRESS = 09
# [MONITOR] [1100] OUTPUT DATA_OUT = xx
# [SCOREBOARD] [1100] DUT DATA_OUT = xx | ADDRESS = 09
# [SCOREBOARD] [1100] REF DATA_OUT = x | MON DATA_OUT = x
# [SCOREBOARD] DATA MATCH SUCCESSFUL. pass_count = 1
# [DRIVER] [1300] to INTERFACE DATA_IN = cd | ADDR = 10 | WRITE_ENB = 1 | READ_ENB = 0
# I/P Functional Coverage = 90.000000%
# [REF] [1300] Reference Model Data in MEM[10] = cd
# [REF] [1300] Reference model DATA_OUT = Z (Read Disabled)
# [SCOREBOARD] [1300] REF DATA_OUT = zz | ADDRESS = 10
# [MONITOR] [1500] OUTPUT DATA_OUT = zz
# [SCOREBOARD] [1500] DUT DATA_OUT = zz | ADDRESS = 10
# [SCOREBOARD] [1500] REF DATA_OUT = z | MON DATA_OUT = z
# [SCOREBOARD] DATA MATCH SUCCESSFUL. pass_count = 2
# [DRIVER] [1700] to INTERFACE DATA_IN = af | ADDR = 1c | WRITE_ENB = 1 | READ_ENB = 0
# I/P Functional Coverage = 90.000000%
# [REF] [1700] Reference Model Data in MEM[1c] = af
# [REF] [1700] Reference model DATA_OUT = Z (Read Disabled)
# [SCOREBOARD] [1700] REF DATA_OUT = zz | ADDRESS = 1c
# [MONITOR] [1900] OUTPUT DATA_OUT = zz
# [SCOREBOARD] [1900] DUT DATA_OUT = zz | ADDRESS = 1c
# [SCOREBOARD] [1900] REF DATA_OUT = z | MON DATA_OUT = z
# [SCOREBOARD] DATA MATCH SUCCESSFUL. pass_count = 3
# [DRIVER] [2100] to INTERFACE DATA_IN = f1 | ADDR = 2 | WRITE_ENB = 0 | READ_ENB = 1
# I/P Functional Coverage = 90.000000%
# [REF] [2100] Reference model DATA_OUT = xx
# [SCOREBOARD] [2100] REF DATA_OUT = xx | ADDRESS = 02
# [MONITOR] [2300] OUTPUT DATA_OUT = xx
# [SCOREBOARD] [2300] DUT DATA_OUT = xx | ADDRESS = 02
# [SCOREBOARD] [2300] REF DATA_OUT = x | MON DATA_OUT = x
# [SCOREBOARD] DATA MATCH SUCCESSFUL. pass_count = 4
# [DRIVER] [2500] to INTERFACE DATA_IN = 19 | ADDR = 10 | WRITE_ENB = 1 | READ_ENB = 0
# I/P Functional Coverage = 90.000000%
# [REF] [2500] Reference Model Data in MEM[10] = 19
# [REF] [2500] Reference model DATA_OUT = Z (Read Disabled)
# [SCOREBOARD] [2500] REF DATA_OUT = zz | ADDRESS = 10
# [MONITOR] [2700] OUTPUT DATA_OUT = zz
# [SCOREBOARD] [2700] DUT DATA_OUT = zz | ADDRESS = 10
# [SCOREBOARD] [2700] REF DATA_OUT = z | MON DATA_OUT = z
# [SCOREBOARD] DATA MATCH SUCCESSFUL. pass_count = 5
# [DRIVER] [2900] to INTERFACE DATA_IN = 41 | ADDR = 1a | WRITE_ENB = 1 | READ_ENB = 0
# I/P Functional Coverage = 90.000000%
# [REF] [2900] Reference Model Data in MEM[1a] = 41
# [REF] [2900] Reference model DATA_OUT = Z (Read Disabled)
# [SCOREBOARD] [2900] REF DATA_OUT = zz | ADDRESS = 1a
# [MONITOR] [3100] OUTPUT DATA_OUT = zz
# [SCOREBOARD] [3100] DUT DATA_OUT = zz | ADDRESS = 1a
# [SCOREBOARD] [3100] REF DATA_OUT = z | MON DATA_OUT = z
# [SCOREBOARD] DATA MATCH SUCCESSFUL. pass_count = 6
# [DRIVER] [3300] to INTERFACE DATA_IN = 3b | ADDR = b | WRITE_ENB = 1 | READ_ENB = 0
# I/P Functional Coverage = 90.000000%
# [REF] [3300] Reference Model Data in MEM[0b] = 3b
# [REF] [3300] Reference model DATA_OUT = Z (Read Disabled)
# [SCOREBOARD] [3300] REF DATA_OUT = zz | ADDRESS = 0b
# [MONITOR] [3500] OUTPUT DATA_OUT = zz
# [SCOREBOARD] [3500] DUT DATA_OUT = zz | ADDRESS = 0b
# [SCOREBOARD] [3500] REF DATA_OUT = z | MON DATA_OUT = z
# [SCOREBOARD] DATA MATCH SUCCESSFUL. pass_count = 7
# [DRIVER] [3700] to INTERFACE DATA_IN = 38 | ADDR = d | WRITE_ENB = 1 | READ_ENB = 0
# I/P Functional Coverage = 90.000000%
# [REF] [3700] Reference Model Data in MEM[0d] = 38
# [REF] [3700] Reference model DATA_OUT = Z (Read Disabled)
# [SCOREBOARD] [3700] REF DATA_OUT = zz | ADDRESS = 0d
# [MONITOR] [3900] OUTPUT DATA_OUT = zz
# [SCOREBOARD] [3900] DUT DATA_OUT = zz | ADDRESS = 0d
# [SCOREBOARD] [3900] REF DATA_OUT = z | MON DATA_OUT = z
# [SCOREBOARD] DATA MATCH SUCCESSFUL. pass_count = 8
# [DRIVER] [4100] to INTERFACE DATA_IN = fb | ADDR = 1c | WRITE_ENB = 1 | READ_ENB = 0
# I/P Functional Coverage = 90.000000%
# [REF] [4100] Reference Model Data in MEM[1c] = fb
# [REF] [4100] Reference model DATA_OUT = Z (Read Disabled)
# [SCOREBOARD] [4100] REF DATA_OUT = zz | ADDRESS = 1c
# [MONITOR] [4300] OUTPUT DATA_OUT = zz
# [SCOREBOARD] [4300] DUT DATA_OUT = zz | ADDRESS = 1c
# [SCOREBOARD] [4300] REF DATA_OUT = z | MON DATA_OUT = z
# [SCOREBOARD] DATA MATCH SUCCESSFUL. pass_count = 9
# [DRIVER] [4500] to INTERFACE DATA_IN = 44 | ADDR = 12 | WRITE_ENB = 0 | READ_ENB = 1
# I/P Functional Coverage = 90.000000%
# [REF] [4500] Reference model DATA_OUT = xx
# [SCOREBOARD] [4500] REF DATA_OUT = xx | ADDRESS = 12
# [MONITOR] [4700] OUTPUT DATA_OUT = xx
# [SCOREBOARD] [4700] DUT DATA_OUT = xx | ADDRESS = 12
# [SCOREBOARD] [4700] REF DATA_OUT = x | MON DATA_OUT = x
# [SCOREBOARD] DATA MATCH SUCCESSFUL. pass_count = 10
# [DRIVER] [4900] to INTERFACE DATA_IN = 3a | ADDR = 3 | WRITE_ENB = 1 | READ_ENB = 0
# I/P Functional Coverage = 90.000000%
# [REF] [4900] Reference Model Data in MEM[03] = 3a
# [REF] [4900] Reference model DATA_OUT = Z (Read Disabled)
# [SCOREBOARD] [4900] REF DATA_OUT = zz | ADDRESS = 03
# [MONITOR] [5100] OUTPUT DATA_OUT = zz
# [SCOREBOARD] [5100] DUT DATA_OUT = zz | ADDRESS = 03
# [SCOREBOARD] [5100] REF DATA_OUT = z | MON DATA_OUT = z
# [SCOREBOARD] DATA MATCH SUCCESSFUL. pass_count = 11
# [DRIVER] [5300] to INTERFACE DATA_IN = 35 | ADDR = 6 | WRITE_ENB = 1 | READ_ENB = 0
# I/P Functional Coverage = 90.000000%
# [REF] [5300] Reference Model Data in MEM[06] = 35
# [REF] [5300] Reference model DATA_OUT = Z (Read Disabled)
# [SCOREBOARD] [5300] REF DATA_OUT = zz | ADDRESS = 06
# [MONITOR] [5500] OUTPUT DATA_OUT = zz
# [SCOREBOARD] [5500] DUT DATA_OUT = zz | ADDRESS = 06
# [SCOREBOARD] [5500] REF DATA_OUT = z | MON DATA_OUT = z
# [SCOREBOARD] DATA MATCH SUCCESSFUL. pass_count = 12
# [DRIVER] [5700] to INTERFACE DATA_IN = 11 | ADDR = 15 | WRITE_ENB = 0 | READ_ENB = 1
# I/P Functional Coverage = 90.000000%
# [REF] [5700] Reference model DATA_OUT = xx
# [SCOREBOARD] [5700] REF DATA_OUT = xx | ADDRESS = 15
# [MONITOR] [5900] OUTPUT DATA_OUT = xx
# [SCOREBOARD] [5900] DUT DATA_OUT = xx | ADDRESS = 15
# [SCOREBOARD] [5900] REF DATA_OUT = x | MON DATA_OUT = x
# [SCOREBOARD] DATA MATCH SUCCESSFUL. pass_count = 13
# [DRIVER] [6100] to INTERFACE DATA_IN = e7 | ADDR = 3 | WRITE_ENB = 1 | READ_ENB = 0
# I/P Functional Coverage = 90.000000%
# [REF] [6100] Reference Model Data in MEM[03] = e7
# [REF] [6100] Reference model DATA_OUT = Z (Read Disabled)
# [SCOREBOARD] [6100] REF DATA_OUT = zz | ADDRESS = 03
# [MONITOR] [6300] OUTPUT DATA_OUT = zz
# [SCOREBOARD] [6300] DUT DATA_OUT = zz | ADDRESS = 03
# [SCOREBOARD] [6300] REF DATA_OUT = z | MON DATA_OUT = z
# [SCOREBOARD] DATA MATCH SUCCESSFUL. pass_count = 14
# [DRIVER] [6500] to INTERFACE DATA_IN = 81 | ADDR = 5 | WRITE_ENB = 1 | READ_ENB = 0
# I/P Functional Coverage = 90.000000%
# [REF] [6500] Reference Model Data in MEM[05] = 81
# [REF] [6500] Reference model DATA_OUT = Z (Read Disabled)
# [SCOREBOARD] [6500] REF DATA_OUT = zz | ADDRESS = 05
# [MONITOR] [6700] OUTPUT DATA_OUT = zz
# [SCOREBOARD] [6700] DUT DATA_OUT = zz | ADDRESS = 05
# [SCOREBOARD] [6700] REF DATA_OUT = z | MON DATA_OUT = z
# [SCOREBOARD] DATA MATCH SUCCESSFUL. pass_count = 15
# [DRIVER] [6900] to INTERFACE DATA_IN = f2 | ADDR = 15 | WRITE_ENB = 1 | READ_ENB = 0
# I/P Functional Coverage = 90.000000%
# [REF] [6900] Reference Model Data in MEM[15] = f2
# [REF] [6900] Reference model DATA_OUT = Z (Read Disabled)
# [SCOREBOARD] [6900] REF DATA_OUT = zz | ADDRESS = 15
# [MONITOR] [7100] OUTPUT DATA_OUT = zz
# [SCOREBOARD] [7100] DUT DATA_OUT = zz | ADDRESS = 15
# [SCOREBOARD] [7100] REF DATA_OUT = z | MON DATA_OUT = z
# [SCOREBOARD] DATA MATCH SUCCESSFUL. pass_count = 16
# [DRIVER] [7300] to INTERFACE DATA_IN = bb | ADDR = 2 | WRITE_ENB = 0 | READ_ENB = 1
# I/P Functional Coverage = 90.000000%
# [REF] [7300] Reference model DATA_OUT = xx
# [SCOREBOARD] [7300] REF DATA_OUT = xx | ADDRESS = 02
# [MONITOR] [7500] OUTPUT DATA_OUT = xx
# [SCOREBOARD] [7500] DUT DATA_OUT = xx | ADDRESS = 02
# [SCOREBOARD] [7500] REF DATA_OUT = x | MON DATA_OUT = x
# [SCOREBOARD] DATA MATCH SUCCESSFUL. pass_count = 17
# [DRIVER] [7700] to INTERFACE DATA_IN = d8 | ADDR = f | WRITE_ENB = 0 | READ_ENB = 1
# I/P Functional Coverage = 90.000000%
# [REF] [7700] Reference model DATA_OUT = xx
# [SCOREBOARD] [7700] REF DATA_OUT = xx | ADDRESS = 0f
# [MONITOR] [7900] OUTPUT DATA_OUT = xx
# [SCOREBOARD] [7900] DUT DATA_OUT = xx | ADDRESS = 0f
# [SCOREBOARD] [7900] REF DATA_OUT = x | MON DATA_OUT = x
# [SCOREBOARD] DATA MATCH SUCCESSFUL. pass_count = 18
# [DRIVER] [8100] to INTERFACE DATA_IN = 33 | ADDR = 10 | WRITE_ENB = 0 | READ_ENB = 1
# I/P Functional Coverage = 90.000000%
# [REF] [8100] Reference model DATA_OUT = 19
# [SCOREBOARD] [8100] REF DATA_OUT = 19 | ADDRESS = 10
# [MONITOR] [8300] OUTPUT DATA_OUT = 19
# [SCOREBOARD] [8300] DUT DATA_OUT = 19 | ADDRESS = 10
# [SCOREBOARD] [8300] REF DATA_OUT = 19 | MON DATA_OUT = 19
# [SCOREBOARD] DATA MATCH SUCCESSFUL. pass_count = 19
# [DRIVER] [8500] to INTERFACE DATA_IN = 7 | ADDR = d | WRITE_ENB = 0 | READ_ENB = 1
# I/P Functional Coverage = 90.000000%
# [REF] [8500] Reference model DATA_OUT = 38
# [SCOREBOARD] [8500] REF DATA_OUT = 38 | ADDRESS = 0d
# [MONITOR] [8700] OUTPUT DATA_OUT = 38
# [SCOREBOARD] [8700] DUT DATA_OUT = 38 | ADDRESS = 0d
# [SCOREBOARD] [8700] REF DATA_OUT = 38 | MON DATA_OUT = 38
# [SCOREBOARD] DATA MATCH SUCCESSFUL. pass_count = 20
# [DRIVER] [8900] to INTERFACE DATA_IN = 9e | ADDR = 0 | WRITE_ENB = 0 | READ_ENB = 1
# I/P Functional Coverage = 90.000000%
# [REF] [8900] Reference model DATA_OUT = xx
# [SCOREBOARD] [8900] REF DATA_OUT = xx | ADDRESS = 00
# [MONITOR] [9100] OUTPUT DATA_OUT = xx
# [SCOREBOARD] [9100] DUT DATA_OUT = xx | ADDRESS = 00
# [SCOREBOARD] [9100] REF DATA_OUT = x | MON DATA_OUT = x
# [SCOREBOARD] DATA MATCH SUCCESSFUL. pass_count = 21
# [DRIVER] [9300] to INTERFACE DATA_IN = f1 | ADDR = 1a | WRITE_ENB = 1 | READ_ENB = 0
# I/P Functional Coverage = 90.000000%
# [REF] [9300] Reference Model Data in MEM[1a] = f1
# [REF] [9300] Reference model DATA_OUT = Z (Read Disabled)
# [SCOREBOARD] [9300] REF DATA_OUT = zz | ADDRESS = 1a
# [MONITOR] [9500] OUTPUT DATA_OUT = zz
# [SCOREBOARD] [9500] DUT DATA_OUT = zz | ADDRESS = 1a
# [SCOREBOARD] [9500] REF DATA_OUT = z | MON DATA_OUT = z
# [SCOREBOARD] DATA MATCH SUCCESSFUL. pass_count = 22
# [DRIVER] [9700] to INTERFACE DATA_IN = dc | ADDR = 5 | WRITE_ENB = 1 | READ_ENB = 0
# I/P Functional Coverage = 90.000000%
# [REF] [9700] Reference Model Data in MEM[05] = dc
# [REF] [9700] Reference model DATA_OUT = Z (Read Disabled)
# [SCOREBOARD] [9700] REF DATA_OUT = zz | ADDRESS = 05
# [MONITOR] [9900] OUTPUT DATA_OUT = zz
# [SCOREBOARD] [9900] DUT DATA_OUT = zz | ADDRESS = 05
# [SCOREBOARD] [9900] REF DATA_OUT = z | MON DATA_OUT = z
# [SCOREBOARD] DATA MATCH SUCCESSFUL. pass_count = 23
# [DRIVER] [10100] to INTERFACE DATA_IN = 34 | ADDR = a | WRITE_ENB = 0 | READ_ENB = 1
# I/P Functional Coverage = 90.000000%
# [REF] [10100] Reference model DATA_OUT = xx
# [SCOREBOARD] [10100] REF DATA_OUT = xx | ADDRESS = 0a
# [MONITOR] [10300] OUTPUT DATA_OUT = xx
# [SCOREBOARD] [10300] DUT DATA_OUT = xx | ADDRESS = 0a
# [SCOREBOARD] [10300] REF DATA_OUT = x | MON DATA_OUT = x
# [SCOREBOARD] DATA MATCH SUCCESSFUL. pass_count = 24
# [DRIVER] [10500] to INTERFACE DATA_IN = fa | ADDR = 1e | WRITE_ENB = 0 | READ_ENB = 1
# I/P Functional Coverage = 90.000000%
# [REF] [10500] Reference model DATA_OUT = xx
# [SCOREBOARD] [10500] REF DATA_OUT = xx | ADDRESS = 1e
# [MONITOR] [10700] OUTPUT DATA_OUT = xx
# [SCOREBOARD] [10700] DUT DATA_OUT = xx | ADDRESS = 1e
# [SCOREBOARD] [10700] REF DATA_OUT = x | MON DATA_OUT = x
# [SCOREBOARD] DATA MATCH SUCCESSFUL. pass_count = 25
# [DRIVER] [10900] to INTERFACE DATA_IN = 26 | ADDR = 2 | WRITE_ENB = 0 | READ_ENB = 1
# I/P Functional Coverage = 90.000000%
# [REF] [10900] Reference model DATA_OUT = xx
# [SCOREBOARD] [10900] REF DATA_OUT = xx | ADDRESS = 02
# [MONITOR] [11100] OUTPUT DATA_OUT = xx
# [SCOREBOARD] [11100] DUT DATA_OUT = xx | ADDRESS = 02
# [SCOREBOARD] [11100] REF DATA_OUT = x | MON DATA_OUT = x
# [SCOREBOARD] DATA MATCH SUCCESSFUL. pass_count = 26
# [DRIVER] [11300] to INTERFACE DATA_IN = 1a | ADDR = f | WRITE_ENB = 1 | READ_ENB = 0
# I/P Functional Coverage = 90.000000%
# [REF] [11300] Reference Model Data in MEM[0f] = 1a
# [REF] [11300] Reference model DATA_OUT = Z (Read Disabled)
# [SCOREBOARD] [11300] REF DATA_OUT = zz | ADDRESS = 0f
# [MONITOR] [11500] OUTPUT DATA_OUT = zz
# [SCOREBOARD] [11500] DUT DATA_OUT = zz | ADDRESS = 0f
# [SCOREBOARD] [11500] REF DATA_OUT = z | MON DATA_OUT = z
# [SCOREBOARD] DATA MATCH SUCCESSFUL. pass_count = 27
# [DRIVER] [11700] to INTERFACE DATA_IN = 92 | ADDR = 7 | WRITE_ENB = 1 | READ_ENB = 0
# I/P Functional Coverage = 90.000000%
# [REF] [11700] Reference Model Data in MEM[07] = 92
# [REF] [11700] Reference model DATA_OUT = Z (Read Disabled)
# [SCOREBOARD] [11700] REF DATA_OUT = zz | ADDRESS = 07
# [MONITOR] [11900] OUTPUT DATA_OUT = zz
# [SCOREBOARD] [11900] DUT DATA_OUT = zz | ADDRESS = 07
# [SCOREBOARD] [11900] REF DATA_OUT = z | MON DATA_OUT = z
# [SCOREBOARD] DATA MATCH SUCCESSFUL. pass_count = 28
# [DRIVER] [12100] to INTERFACE DATA_IN = 7e | ADDR = 9 | WRITE_ENB = 1 | READ_ENB = 0
# I/P Functional Coverage = 90.000000%
# [REF] [12100] Reference Model Data in MEM[09] = 7e
# [REF] [12100] Reference model DATA_OUT = Z (Read Disabled)
# [SCOREBOARD] [12100] REF DATA_OUT = zz | ADDRESS = 09
# [MONITOR] [12300] OUTPUT DATA_OUT = zz
# [SCOREBOARD] [12300] DUT DATA_OUT = zz | ADDRESS = 09
# [SCOREBOARD] [12300] REF DATA_OUT = z | MON DATA_OUT = z
# [SCOREBOARD] DATA MATCH SUCCESSFUL. pass_count = 29
# [DRIVER] [12500] to INTERFACE DATA_IN = 6c | ADDR = 7 | WRITE_ENB = 0 | READ_ENB = 1
# I/P Functional Coverage = 90.000000%
# [REF] [12500] Reference model DATA_OUT = 92
# [SCOREBOARD] [12500] REF DATA_OUT = 92 | ADDRESS = 07
# [MONITOR] [12700] OUTPUT DATA_OUT = 92
# [SCOREBOARD] [12700] DUT DATA_OUT = 92 | ADDRESS = 07
# [SCOREBOARD] [12700] REF DATA_OUT = 92 | MON DATA_OUT = 92
# [SCOREBOARD] DATA MATCH SUCCESSFUL. pass_count = 30
# [DRIVER] [12900] to INTERFACE DATA_IN = 44 | ADDR = 1f | WRITE_ENB = 1 | READ_ENB = 0
# I/P Functional Coverage = 90.000000%
# [REF] [12900] Reference Model Data in MEM[1f] = 44
# [REF] [12900] Reference model DATA_OUT = Z (Read Disabled)
# [SCOREBOARD] [12900] REF DATA_OUT = zz | ADDRESS = 1f
# [MONITOR] [13100] OUTPUT DATA_OUT = zz
# [SCOREBOARD] [13100] DUT DATA_OUT = zz | ADDRESS = 1f
# [SCOREBOARD] [13100] REF DATA_OUT = z | MON DATA_OUT = z
# [SCOREBOARD] DATA MATCH SUCCESSFUL. pass_count = 31
# [DRIVER] [13300] to INTERFACE DATA_IN = 2f | ADDR = 4 | WRITE_ENB = 0 | READ_ENB = 1
# I/P Functional Coverage = 90.000000%
# [REF] [13300] Reference model DATA_OUT = xx
# [SCOREBOARD] [13300] REF DATA_OUT = xx | ADDRESS = 04
# [MONITOR] [13500] OUTPUT DATA_OUT = xx
# [SCOREBOARD] [13500] DUT DATA_OUT = xx | ADDRESS = 04
# [SCOREBOARD] [13500] REF DATA_OUT = x | MON DATA_OUT = x
# [SCOREBOARD] DATA MATCH SUCCESSFUL. pass_count = 32
# [DRIVER] [13700] to INTERFACE DATA_IN = f7 | ADDR = 2 | WRITE_ENB = 1 | READ_ENB = 0
# I/P Functional Coverage = 90.000000%
# [REF] [13700] Reference Model Data in MEM[02] = f7
# [REF] [13700] Reference model DATA_OUT = Z (Read Disabled)
# [SCOREBOARD] [13700] REF DATA_OUT = zz | ADDRESS = 02
# [MONITOR] [13900] OUTPUT DATA_OUT = zz
# [SCOREBOARD] [13900] DUT DATA_OUT = zz | ADDRESS = 02
# [SCOREBOARD] [13900] REF DATA_OUT = z | MON DATA_OUT = z
# [SCOREBOARD] DATA MATCH SUCCESSFUL. pass_count = 33
# [DRIVER] [14100] to INTERFACE DATA_IN = 73 | ADDR = f | WRITE_ENB = 0 | READ_ENB = 1
# I/P Functional Coverage = 90.000000%
# [REF] [14100] Reference model DATA_OUT = 1a
# [SCOREBOARD] [14100] REF DATA_OUT = 1a | ADDRESS = 0f
# [MONITOR] [14300] OUTPUT DATA_OUT = 1a
# [SCOREBOARD] [14300] DUT DATA_OUT = 1a | ADDRESS = 0f
# [SCOREBOARD] [14300] REF DATA_OUT = 1a | MON DATA_OUT = 1a
# [SCOREBOARD] DATA MATCH SUCCESSFUL. pass_count = 34
# [DRIVER] [14500] to INTERFACE DATA_IN = 2f | ADDR = 18 | WRITE_ENB = 0 | READ_ENB = 1
# I/P Functional Coverage = 90.000000%
# [REF] [14500] Reference model DATA_OUT = xx
# [SCOREBOARD] [14500] REF DATA_OUT = xx | ADDRESS = 18
# [MONITOR] [14700] OUTPUT DATA_OUT = xx
# [SCOREBOARD] [14700] DUT DATA_OUT = xx | ADDRESS = 18
# [SCOREBOARD] [14700] REF DATA_OUT = x | MON DATA_OUT = x
# [SCOREBOARD] DATA MATCH SUCCESSFUL. pass_count = 35
